soc_bounty/tb_zwolf_soc.vcd
$date
	Sat Apr 25 10:29:49 2026
$end
$version
	Icarus Verilog
$end
$timescale
	1ps
$end
$scope module tb_zwolf_soc $end
$var wire 1 ! sda $end
$var wire 1 " spi_mosi $end
$var wire 1 # spi_cs_n $end
$var wire 1 $ spi_clk $end
$var reg 1 % clk $end
$var reg 8 & fram_addr [7:0] $end
$var reg 3 ' fram_bit [2:0] $end
$var reg 8 ( fram_cmd [7:0] $end
$var reg 8 ) fram_sr [7:0] $end
$var reg 3 * fram_state [2:0] $end
$var reg 1 + rst_n $end
$var reg 1 , scl $end
$var reg 1 - sda_drive $end
$var reg 1 . sda_oe $end
$var reg 1 / spi_miso $end
$var integer 32 0 fi [31:0] $end
$scope module dut $end
$var wire 1 % clk $end
$var wire 8 1 cpu_rdata [7:0] $end
$var wire 1 + rst_n $end
$var wire 1 , scl $end
$var wire 1 ! sda $end
$var wire 1 / spi_miso $end
$var wire 1 2 spi_start $end
$var wire 8 3 spi_rdata [7:0] $end
$var wire 1 " spi_mosi $end
$var wire 1 # spi_cs_n $end
$var wire 1 $ spi_clk $end
$var wire 1 4 spi_busy $end
$var wire 8 5 rmux [7:0] $end
$var wire 1 6 i2c_we $end
$var wire 8 7 i2c_wdata [7:0] $end
$var wire 8 8 i2c_addr [7:0] $end
$var wire 1 9 cpu_we $end
$var wire 8 : cpu_wdata [7:0] $end
$var wire 8 ; cpu_addr [7:0] $end
$var wire 1 < act_we $end
$var wire 8 = act_wdata [7:0] $end
$var wire 8 > act_addr [7:0] $end
$var reg 1 ? cpu_halt $end
$var reg 8 @ spi_a [7:0] $end
$var reg 8 A spi_d [7:0] $end
$var reg 1 B spi_rw $end
$scope module u_cpu $end
$var wire 1 % clk $end
$var wire 1 ? halt $end
$var wire 8 C rdata [7:0] $end
$var wire 1 + rst_n $end
$var wire 8 D wdata [7:0] $end
$var wire 1 9 we $end
$var wire 8 E rsv [7:0] $end
$var wire 8 F rdv [7:0] $end
$var parameter 3 G EX $end
$var parameter 3 H F0 $end
$var parameter 3 I F1 $end
$var parameter 3 J F2 $end
$var parameter 3 K MR $end
$var parameter 3 L W2 $end
$var reg 8 M addr [7:0] $end
$var reg 4 N op [3:0] $end
$var reg 8 O pc [7:0] $end
$var reg 8 P ra [7:0] $end
$var reg 8 Q rb [7:0] $end
$var reg 1 R rd $end
$var reg 1 S rs $end
$var reg 3 T state [2:0] $end
$var reg 1 U zf $end
$upscope $end
$scope module u_i2c $end
$var wire 1 % clk $end
$var wire 1 + rst_n $end
$var wire 1 , scl $end
$var wire 1 V scl_fall $end
$var wire 1 W scl_rise $end
$var wire 1 ! sda $end
$var wire 1 X start_cond $end
$var wire 1 Y stop_cond $end
$var wire 1 Z sda_s $end
$var wire 1 [ scl_s $end
$var parameter 7 \ I2C_ADDR $end
$var parameter 3 ] ST_DATACK $end
$var parameter 3 ^ ST_DEVACK $end
$var parameter 3 _ ST_DEVADDR $end
$var parameter 3 ` ST_IDLE $end
$var parameter 3 a ST_RX $end
$var reg 3 b bit_cnt [2:0] $end
$var reg 1 c first_byte $end
$var reg 8 d reg_addr [7:0] $end
$var reg 8 e reg_wdata [7:0] $end
$var reg 1 6 reg_we $end
$var reg 1 f scl_prev $end
$var reg 2 g scl_sync [1:0] $end
$var reg 1 h sda_oe $end
$var reg 1 i sda_prev $end
$var reg 2 j sda_sync [1:0] $end
$var reg 8 k shift_reg [7:0] $end
$var reg 3 l state [2:0] $end
$upscope $end
$scope module u_spi $end
$var wire 8 m addr [7:0] $end
$var wire 1 % clk $end
$var wire 1 / miso $end
$var wire 1 + rst_n $end
$var wire 1 B rw $end
$var wire 1 2 start $end
$var wire 8 n wdata [7:0] $end
$var wire 8 o rdata [7:0] $end
$var parameter 2 p GAP $end
$var parameter 2 q IDLE $end
$var parameter 2 r NEXT $end
$var parameter 2 s SHIFT $end
$var reg 3 t bcnt [2:0] $end
$var reg 3 u bphase [2:0] $end
$var reg 1 4 busy $end
$var reg 1 # cs_n $end
$var reg 1 " mosi $end
$var reg 1 v ph $end
$var reg 1 $ sck $end
$var reg 8 w sr [7:0] $end
$var reg 2 x state [1:0] $end
$upscope $end
$upscope $end
$scope task i2c_start $end
$upscope $end
$scope task i2c_stop $end
$upscope $end
$scope task i2c_write_byte $end
$var reg 8 y data [7:0] $end
$var integer 32 z i [31:0] $end
$upscope $end
$upscope $end
$enddefinitions $end
$comment Show the parameter values. $end
$dumpall
b1 s
b10 r
b0 q
b11 p
b11 a
b0 `
b1 _
b10 ^
b100 ]
b10010 \
b100 L
b101 K
b11 J
b1 I
b0 H
b10 G
$end
#0
$dumpvars
bx z
bx y
b0 x
b0 w
0v
b0 u
b0 t
b0 o
b0 n
b0 m
b0 l
b0 k
b11 j
1i
0h
b11 g
1f
b0 e
b0 d
1c
b0 b
1[
1Z
0Y
0X
0W
0V
0U
b0 T
0S
0R
b0 Q
b0 P
b0 O
b0 N
b0 M
b0 F
b0 E
b0 D
b0 C
0B
b0 A
b0 @
0?
b0 >
b0 =
0<
b0 ;
b0 :
09
b0 8
b0 7
06
b0 5
04
b0 3
02
b0 1
b100000000 0
0/
0.
1-
1,
0+
b0 *
b0 )
b0 (
b0 '
b0 &
0%
0$
1#
0"
1!
$end
#10000
1%
#20000
0%
#30000
1%
#40000
0%
#50000
1%
#60000
0%
#70000
1%
#80000
0%
#90000
1%
#100000
0%
1+
#110000
b1 T
1%
#120000
0%
#130000
b10 T
b1 O
1%
#140000
0%
#150000
b0 T
1%
#160000
0%
#170000
b1 >
b1 T
b1 ;
b1 M
1%
#180000
0%
#190000
b10 T
b10 O
1%
#200000
0%
#210000
b0 T
1%
#220000
0%
#230000
b10 >
b1 T
b10 ;
b10 M
1%
#240000
0%
#250000
b10 T
b11 O
1%
#260000
0%
#270000
b0 T
1%
#280000
0%
#290000
b11 >
b1 T
b11 ;
b11 M
1%
#300000
0%
#310000
b10 T
b100 O
1%
#320000
0%
#330000
b0 T
1%
#340000
0%
#350000
b100 >
b1 T
b100 ;
b100 M
1%
#360000
0%
#370000
b10 T
b101 O
1%
#380000
0%
#390000
b0 T
1%
#400000
0%
#410000
b101 >
b1 T
b101 ;
b101 M
1%
#420000
0%
#430000
b10 T
b110 O
1%
#440000
0%
#450000
b0 T
1%
#460000
0%
#470000
b110 >
b1 T
b110 ;
b110 M
1%
#480000
0%
#490000
b10 T
b111 O
1%
#500000
0%
#510000
b0 T
1%
#520000
0%
#530000
b111 >
b1 T
b111 ;
b111 M
1%
#540000
0%
#550000
b10 T
b1000 O
1%
#560000
0%
#570000
b0 T
1%
#580000
0%
#590000
b1000 >
b1 T
b1000 ;
b1000 M
1%
#600000
1!
0%
1.
#610000
b10 T
b1001 O
1%
#620000
0%
#630000
b0 T
1%
#640000
0%
#650000
b1001 >
b1 T
b1001 ;
b1001 M
1%
#660000
0%
#670000
b10 T
b1010 O
1%
#680000
0%
#690000
b0 T
1%
#700000
0%
#710000
b1010 >
b1 T
b1010 ;
b1010 M
1%
#720000
0%
#730000
b10 T
b1011 O
1%
#740000
0%
#750000
b0 T
1%
#760000
0%
#770000
b1011 >
b1 T
b1011 ;
b1011 M
1%
#780000
0%
#790000
b10 T
b1100 O
1%
#800000
0%
#810000
b0 T
1%
#820000
0%
#830000
b1100 >
b1 T
b1100 ;
b1100 M
1%
#840000
0%
#850000
b10 T
b1101 O
1%
#860000
0%
#870000
b0 T
1%
#880000
0%
#890000
b1101 >
b1 T
b1101 ;
b1101 M
1%
#900000
0%
#910000
b10 T
b1110 O
1%
#920000
0%
#930000
b0 T
1%
#940000
0%
#950000
b1110 >
b1 T
b1110 ;
b1110 M
1%
#960000
0%
#970000
b10 T
b1111 O
1%
#980000
0%
#990000
b0 T
1%
#1000000
0!
0%
0-
#1010000
b1111 >
b10 j
b1 T
b1111 ;
b1111 M
1%
#1020000
0%
#1030000
1X
0Z
b10 T
b10000 O
b0 j
1%
#1040000
0%
#1050000
0X
b111 b
b1 l
0i
b0 T
1%
#1060000
0%
#1070000
b10000 >
b1 T
b10000 ;
b10000 M
1%
#1080000
0%
#1090000
b10 T
b10001 O
1%
#1100000
0%
#1110000
b0 T
1%
#1120000
0%
#1130000
b10001 >
b1 T
b10001 ;
b10001 M
1%
#1140000
0%
#1150000
b10 T
b10010 O
1%
#1160000
0%
#1170000
b0 T
1%
#1180000
0%
#1190000
b10010 >
b1 T
b10010 ;
b10010 M
1%
#1200000
0%
0,
#1210000
b10 g
b10 T
b10011 O
1%
#1220000
0%
#1230000
1V
0[
b0 T
b0 g
1%
#1240000
0%
#1250000
0V
b10011 >
0f
b1 T
b10011 ;
b10011 M
1%
#1260000
0%
#1270000
b10 T
b10100 O
1%
#1280000
0%
#1290000
b0 T
1%
#1300000
0%
#1310000
b10100 >
b1 T
b10100 ;
b10100 M
1%
#1320000
0%
#1330000
b10 T
b10101 O
1%
#1340000
0%
#1350000
b0 T
1%
#1360000
0%
#1370000
b10101 >
b1 T
b10101 ;
b10101 M
1%
#1380000
0%
#1390000
b10 T
b10110 O
1%
#1400000
0%
b111 z
b100100 y
#1410000
b0 T
1%
#1420000
0%
#1430000
b10110 >
b1 T
b10110 ;
b10110 M
1%
#1440000
0%
#1450000
b10 T
b10111 O
1%
#1460000
0%
#1470000
b0 T
1%
#1480000
0%
#1490000
b10111 >
b1 T
b10111 ;
b10111 M
1%
#1500000
0%
1,
#1510000
b10 T
b11000 O
b1 g
1%
#1520000
0%
#1530000
1W
1[
b11 g
b0 T
1%
#1540000
0%
#1550000
0W
b11000 >
b1 T
b11000 ;
b11000 M
b110 b
1f
1%
#1560000
0%
#1570000
b10 T
b11001 O
1%
#1580000
0%
#1590000
b0 T
1%
#1600000
0%
#1610000
b11001 >
b1 T
b11001 ;
b11001 M
1%
#1620000
0%
#1630000
b10 T
b11010 O
1%
#1640000
0%
#1650000
b0 T
1%
#1660000
0%
#1670000
b11010 >
b1 T
b11010 ;
b11010 M
1%
#1680000
0%
#1690000
b10 T
b11011 O
1%
#1700000
0%
0,
#1710000
b0 T
b10 g
1%
#1720000
0%
#1730000
1V
0[
b11011 >
b0 g
b1 T
b11011 ;
b11011 M
1%
#1740000
0%
#1750000
0V
b10 T
b11100 O
0f
1%
#1760000
0%
#1770000
b0 T
1%
#1780000
0%
#1790000
b11100 >
b1 T
b11100 ;
b11100 M
1%
#1800000
0%
#1810000
b10 T
b11101 O
1%
#1820000
0%
#1830000
b0 T
1%
#1840000
0%
#1850000
b11101 >
b1 T
b11101 ;
b11101 M
1%
#1860000
0%
#1870000
b10 T
b11110 O
1%
#1880000
0%
#1890000
b0 T
1%
#1900000
0%
b110 z
#1910000
b11110 >
b1 T
b11110 ;
b11110 M
1%
#1920000
0%
#1930000
b10 T
b11111 O
1%
#1940000
0%
#1950000
b0 T
1%
#1960000
0%
#1970000
b11111 >
b1 T
b11111 ;
b11111 M
1%
#1980000
0%
#1990000
b10 T
b100000 O
1%
#2000000
0%
1,
#2010000
b1 g
b0 T
1%
#2020000
0%
#2030000
1W
b100000 >
1[
b1 T
b100000 ;
b100000 M
b11 g
1%
#2040000
0%
#2050000
0W
b101 b
1f
b10 T
b100001 O
1%
#2060000
0%
#2070000
b0 T
1%
#2080000
0%
#2090000
b100001 >
b1 T
b100001 ;
b100001 M
1%
#2100000
0%
#2110000
b10 T
b100010 O
1%
#2120000
0%
#2130000
b0 T
1%
#2140000
0%
#2150000
b100010 >
b1 T
b100010 ;
b100010 M
1%
#2160000
0%
#2170000
b10 T
b100011 O
1%
#2180000
0%
#2190000
b0 T
1%
#2200000
0%
0,
#2210000
b100011 >
b10 g
b1 T
b100011 ;
b100011 M
1%
#2220000
0%
#2230000
1V
0[
b10 T
b100100 O
b0 g
1%
#2240000
0%
#2250000
0V
0f
b0 T
1%
#2260000
0%
#2270000
b100100 >
b1 T
b100100 ;
b100100 M
1%
#2280000
0%
#2290000
b10 T
b100101 O
1%
#2300000
0%
#2310000
b0 T
1%
#2320000
0%
#2330000
b100101 >
b1 T
b100101 ;
b100101 M
1%
#2340000
0%
#2350000
b10 T
b100110 O
1%
#2360000
0%
#2370000
b0 T
1%
#2380000
0%
#2390000
b100110 >
b1 T
b100110 ;
b100110 M
1%
#2400000
1!
0%
1-
b101 z
#2410000
b1 j
b10 T
b100111 O
1%
#2420000
0%
#2430000
1Z
b0 T
b11 j
1%
#2440000
0%
#2450000
b100111 >
1i
b1 T
b100111 ;
b100111 M
1%
#2460000
0%
#2470000
b10 T
b101000 O
1%
#2480000
0%
#2490000
b0 T
1%
#2500000
0%
1,
#2510000
b101000 >
b1 T
b101000 ;
b101000 M
b1 g
1%
#2520000
0%
#2530000
1W
1[
b11 g
b10 T
b101001 O
1%
#2540000
0%
#2550000
0W
b0 T
b100 b
b1 k
1f
1%
#2560000
0%
#2570000
b101001 >
b1 T
b101001 ;
b101001 M
1%
#2580000
0%
#2590000
b10 T
b101010 O
1%
#2600000
0%
#2610000
b0 T
1%
#2620000
0%
#2630000
b101010 >
b1 T
b101010 ;
b101010 M
1%
#2640000
0%
#2650000
b10 T
b101011 O
1%
#2660000
0%
#2670000
b0 T
1%
#2680000
0%
#2690000
b101011 >
b1 T
b101011 ;
b101011 M
1%
#2700000
0%
0,
#2710000
b10 T
b101100 O
b10 g
1%
#2720000
0%
#2730000
1V
0[
b0 g
b0 T
1%
#2740000
0%
#2750000
b101100 >
0V
b1 T
b101100 ;
b101100 M
0f
1%
#2760000
0%
#2770000
b10 T
b101101 O
1%
#2780000
0%
#2790000
b0 T
1%
#2800000
0%
#2810000
b101101 >
b1 T
b101101 ;
b101101 M
1%
#2820000
0%
#2830000
b10 T
b101110 O
1%
#2840000
0%
#2850000
b0 T
1%
#2860000
0%
#2870000
b101110 >
b1 T
b101110 ;
b101110 M
1%
#2880000
0%
#2890000
b10 T
b101111 O
1%
#2900000
0!
0%
0-
b100 z
#2910000
b0 T
b10 j
1%
#2920000
0%
#2930000
0Z
b101111 >
b0 j
b1 T
b101111 ;
b101111 M
1%
#2940000
0%
#2950000
b10 T
b110000 O
0i
1%
#2960000
0%
#2970000
b0 T
1%
#2980000
0%
#2990000
b110000 >
b1 T
b110000 ;
b110000 M
1%
#3000000
0%
1,
#3010000
b1 g
b10 T
b110001 O
1%
#3020000
0%
#3030000
1W
1[
b0 T
b11 g
1%
#3040000
0%
#3050000
0W
b110001 >
b11 b
b10 k
1f
b1 T
b110001 ;
b110001 M
1%
#3060000
0%
#3070000
b10 T
b110010 O
1%
#3080000
0%
#3090000
b0 T
1%
#3100000
0%
#3110000
b110010 >
b1 T
b110010 ;
b110010 M
1%
#3120000
0%
#3130000
b10 T
b110011 O
1%
#3140000
0%
#3150000
b0 T
1%
#3160000
0%
#3170000
b110011 >
b1 T
b110011 ;
b110011 M
1%
#3180000
0%
#3190000
b10 T
b110100 O
1%
#3200000
0%
0,
#3210000
b10 g
b0 T
1%
#3220000
0%
#3230000
1V
b110100 >
0[
b1 T
b110100 ;
b110100 M
b0 g
1%
#3240000
0%
#3250000
0V
0f
b10 T
b110101 O
1%
#3260000
0%
#3270000
b0 T
1%
#3280000
0%
#3290000
b110101 >
b1 T
b110101 ;
b110101 M
1%
#3300000
0%
#3310000
b10 T
b110110 O
1%
#3320000
0%
#3330000
b0 T
1%
#3340000
0%
#3350000
b110110 >
b1 T
b110110 ;
b110110 M
1%
#3360000
0%
#3370000
b10 T
b110111 O
1%
#3380000
0%
#3390000
b0 T
1%
#3400000
0%
b11 z
#3410000
b110111 >
b1 T
b110111 ;
b110111 M
1%
#3420000
0%
#3430000
b10 T
b111000 O
1%
#3440000
0%
#3450000
b0 T
1%
#3460000
0%
#3470000
b111000 >
b1 T
b111000 ;
b111000 M
1%
#3480000
0%
#3490000
b10 T
b111001 O
1%
#3500000
0%
1,
#3510000
b0 T
b1 g
1%
#3520000
0%
#3530000
1W
1[
b111001 >
b11 g
b1 T
b111001 ;
b111001 M
1%
#3540000
0%
#3550000
0W
b10 T
b111010 O
b10 b
b100 k
1f
1%
#3560000
0%
#3570000
b0 T
1%
#3580000
0%
#3590000
b111010 >
b1 T
b111010 ;
b111010 M
1%
#3600000
0%
#3610000
b10 T
b111011 O
1%
#3620000
0%
#3630000
b0 T
1%
#3640000
0%
#3650000
b111011 >
b1 T
b111011 ;
b111011 M
1%
#3660000
0%
#3670000
b10 T
b111100 O
1%
#3680000
0%
#3690000
b0 T
1%
#3700000
0%
0,
#3710000
b111100 >
b1 T
b111100 ;
b111100 M
b10 g
1%
#3720000
0%
#3730000
1V
0[
b0 g
b10 T
b111101 O
1%
#3740000
0%
#3750000
0V
b0 T
0f
1%
#3760000
0%
#3770000
b111101 >
b1 T
b111101 ;
b111101 M
1%
#3780000
0%
#3790000
b10 T
b111110 O
1%
#3800000
0%
#3810000
b0 T
1%
#3820000
0%
#3830000
b111110 >
b1 T
b111110 ;
b111110 M
1%
#3840000
0%
#3850000
b10 T
b111111 O
1%
#3860000
0%
#3870000
b0 T
1%
#3880000
0%
#3890000
b111111 >
b1 T
b111111 ;
b111111 M
1%
#3900000
1!
0%
1-
b10 z
#3910000
b10 T
b1000000 O
b1 j
1%
#3920000
0%
#3930000
1Z
b11 j
b0 T
1%
#3940000
0%
#3950000
b1000000 >
b1 T
b1000000 ;
b1000000 M
1i
1%
#3960000
0%
#3970000
b10 T
b1000001 O
1%
#3980000
0%
#3990000
b0 T
1%
#4000000
0%
1,
#4010000
b1000001 >
b1 g
b1 T
b1000001 ;
b1000001 M
1%
#4020000
0%
#4030000
1W
1[
b10 T
b1000010 O
b11 g
1%
#4040000
0%
#4050000
0W
b1 b
b1001 k
1f
b0 T
1%
#4060000
0%
#4070000
b1000010 >
b1 T
b1000010 ;
b1000010 M
1%
#4080000
0%
#4090000
b10 T
b1000011 O
1%
#4100000
0%
#4110000
b0 T
1%
#4120000
0%
#4130000
b1000011 >
b1 T
b1000011 ;
b1000011 M
1%
#4140000
0%
#4150000
b10 T
b1000100 O
1%
#4160000
0%
#4170000
b0 T
1%
#4180000
0%
#4190000
b1000100 >
b1 T
b1000100 ;
b1000100 M
1%
#4200000
0%
0,
#4210000
b10 g
b10 T
b1000101 O
1%
#4220000
0%
#4230000
1V
0[
b0 T
b0 g
1%
#4240000
0%
#4250000
0V
b1000101 >
0f
b1 T
b1000101 ;
b1000101 M
1%
#4260000
0%
#4270000
b10 T
b1000110 O
1%
#4280000
0%
#4290000
b0 T
1%
#4300000
0%
#4310000
b1000110 >
b1 T
b1000110 ;
b1000110 M
1%
#4320000
0%
#4330000
b10 T
b1000111 O
1%
#4340000
0%
#4350000
b0 T
1%
#4360000
0%
#4370000
b1000111 >
b1 T
b1000111 ;
b1000111 M
1%
#4380000
0%
#4390000
b10 T
b1001000 O
1%
#4400000
0!
0%
0-
b1 z
#4410000
b10 j
b0 T
1%
#4420000
0%
#4430000
b1001000 >
0Z
b1 T
b1001000 ;
b1001000 M
b0 j
1%
#4440000
0%
#4450000
0i
b10 T
b1001001 O
1%
#4460000
0%
#4470000
b0 T
1%
#4480000
0%
#4490000
b1001001 >
b1 T
b1001001 ;
b1001001 M
1%
#4500000
0%
1,
#4510000
b10 T
b1001010 O
b1 g
1%
#4520000
0%
#4530000
1W
1[
b11 g
b0 T
1%
#4540000
0%
#4550000
0W
b1001010 >
b1 T
b1001010 ;
b1001010 M
b0 b
b10010 k
1f
1%
#4560000
0%
#4570000
b10 T
b1001011 O
1%
#4580000
0%
#4590000
b0 T
1%
#4600000
0%
#4610000
b1001011 >
b1 T
b1001011 ;
b1001011 M
1%
#4620000
0%
#4630000
b10 T
b1001100 O
1%
#4640000
0%
#4650000
b0 T
1%
#4660000
0%
#4670000
b1001100 >
b1 T
b1001100 ;
b1001100 M
1%
#4680000
0%
#4690000
b10 T
b1001101 O
1%
#4700000
0%
0,
#4710000
b0 T
b10 g
1%
#4720000
0%
#4730000
1V
0[
b1001101 >
b0 g
b1 T
b1001101 ;
b1001101 M
1%
#4740000
0%
#4750000
0V
b10 T
b1001110 O
0f
1%
#4760000
0%
#4770000
b0 T
1%
#4780000
0%
#4790000
b1001110 >
b1 T
b1001110 ;
b1001110 M
1%
#4800000
0%
#4810000
b10 T
b1001111 O
1%
#4820000
0%
#4830000
b0 T
1%
#4840000
0%
#4850000
b1001111 >
b1 T
b1001111 ;
b1001111 M
1%
#4860000
0%
#4870000
b10 T
b1010000 O
1%
#4880000
0%
#4890000
b0 T
1%
#4900000
0%
b0 z
#4910000
b1010000 >
b1 T
b1010000 ;
b1010000 M
1%
#4920000
0%
#4930000
b10 T
b1010001 O
1%
#4940000
0%
#4950000
b0 T
1%
#4960000
0%
#4970000
b1010001 >
b1 T
b1010001 ;
b1010001 M
1%
#4980000
0%
#4990000
b10 T
b1010010 O
1%
#5000000
0%
1,
#5010000
b1 g
b0 T
1%
#5020000
0%
#5030000
1W
b1010010 >
1[
b1 T
b1010010 ;
b1010010 M
b11 g
1%
#5040000
0%
#5050000
0W
b10 l
b100100 k
1f
b10 T
b1010011 O
1%
#5060000
0%
#5070000
b0 T
1%
#5080000
0%
#5090000
b1010011 >
b1 T
b1010011 ;
b1010011 M
1%
#5100000
0%
#5110000
b10 T
b1010100 O
1%
#5120000
0%
#5130000
b0 T
1%
#5140000
0%
#5150000
b1010100 >
b1 T
b1010100 ;
b1010100 M
1%
#5160000
0%
#5170000
b10 T
b1010101 O
1%
#5180000
0%
#5190000
b0 T
1%
#5200000
0%
0,
#5210000
b1010101 >
b10 g
b1 T
b1010101 ;
b1010101 M
1%
#5220000
0%
#5230000
1V
0[
b10 T
b1010110 O
b0 g
1%
#5240000
0%
#5250000
0V
b11 l
b111 b
1h
0f
b0 T
1%
#5260000
0%
#5270000
b1010110 >
b1 T
b1010110 ;
b1010110 M
1%
#5280000
0%
#5290000
b10 T
b1010111 O
1%
#5300000
0%
#5310000
b0 T
1%
#5320000
0%
#5330000
b1010111 >
b1 T
b1010111 ;
b1010111 M
1%
#5340000
0%
#5350000
b10 T
b1011000 O
1%
#5360000
0%
#5370000
b0 T
1%
#5380000
0%
#5390000
b1011000 >
b1 T
b1011000 ;
b1011000 M
1%
#5400000
0%
0.
b11111111111111111111111111111111 z
#5410000
b10 T
b1011001 O
1%
#5420000
0%
#5430000
b0 T
1%
#5440000
0%
#5450000
b1011001 >
b1 T
b1011001 ;
b1011001 M
1%
#5460000
0%
#5470000
b10 T
b1011010 O
1%
#5480000
0%
#5490000
b0 T
1%
#5500000
0%
1,
#5510000
b1011010 >
b1 T
b1011010 ;
b1011010 M
b1 g
1%
#5520000
0%
#5530000
1W
1[
b11 g
b10 T
b1011011 O
1%
#5540000
0%
#5550000
0W
b0 T
b110 b
b1001000 k
1f
1%
#5560000
0%
#5570000
b1011011 >
b1 T
b1011011 ;
b1011011 M
1%
#5580000
0%
#5590000
b10 T
b1011100 O
1%
#5600000
0%
#5610000
b0 T
1%
#5620000
0%
#5630000
b1011100 >
b1 T
b1011100 ;
b1011100 M
1%
#5640000
0%
#5650000
b10 T
b1011101 O
1%
#5660000
0%
#5670000
b0 T
1%
#5680000
0%
#5690000
b1011101 >
b1 T
b1011101 ;
b1011101 M
1%
#5700000
0%
0,
#5710000
b10 T
b1011110 O
b10 g
1%
#5720000
0%
#5730000
1V
0[
b0 g
b0 T
1%
#5740000
0%
#5750000
b1011110 >
1!
0V
b1 T
b1011110 ;
b1011110 M
0h
0f
1%
#5760000
0%
#5770000
b1 j
b10 T
b1011111 O
1%
#5780000
0%
#5790000
1Z
b0 T
b11 j
1%
#5800000
0%
#5810000
b1011111 >
1i
b1 T
b1011111 ;
b1011111 M
1%
#5820000
0%
#5830000
b10 T
b1100000 O
1%
#5840000
0%
#5850000
b0 T
1%
#5860000
0%
#5870000
b1100000 >
b1 T
b1100000 ;
b1100000 M
1%
#5880000
0%
#5890000
b10 T
b1100001 O
1%
#5900000
1!
0%
1-
b111 z
1.
b11110011 y
#5910000
b0 T
1%
#5920000
0%
#5930000
b1100001 >
b1 T
b1100001 ;
b1100001 M
1%
#5940000
0%
#5950000
b10 T
b1100010 O
1%
#5960000
0%
#5970000
b0 T
1%
#5980000
0%
#5990000
b1100010 >
b1 T
b1100010 ;
b1100010 M
1%
#6000000
0%
1,
#6010000
b1 g
b10 T
b1100011 O
1%
#6020000
0%
#6030000
1W
1[
b0 T
b11 g
1%
#6040000
0%
#6050000
0W
b1100011 >
b101 b
b10010001 k
1f
b1 T
b1100011 ;
b1100011 M
1%
#6060000
0%
#6070000
b10 T
b1100100 O
1%
#6080000
0%
#6090000
b0 T
1%
#6100000
0%
#6110000
b1100100 >
b1 T
b1100100 ;
b1100100 M
1%
#6120000
0%
#6130000
b10 T
b1100101 O
1%
#6140000
0%
#6150000
b0 T
1%
#6160000
0%
#6170000
b1100101 >
b1 T
b1100101 ;
b1100101 M
1%
#6180000
0%
#6190000
b10 T
b1100110 O
1%
#6200000
0%
0,
#6210000
b10 g
b0 T
1%
#6220000
0%
#6230000
1V
b1100110 >
0[
b1 T
b1100110 ;
b1100110 M
b0 g
1%
#6240000
0%
#6250000
0V
0f
b10 T
b1100111 O
1%
#6260000
0%
#6270000
b0 T
1%
#6280000
0%
#6290000
b1100111 >
b1 T
b1100111 ;
b1100111 M
1%
#6300000
0%
#6310000
b10 T
b1101000 O
1%
#6320000
0%
#6330000
b0 T
1%
#6340000
0%
#6350000
b1101000 >
b1 T
b1101000 ;
b1101000 M
1%
#6360000
0%
#6370000
b10 T
b1101001 O
1%
#6380000
0%
#6390000
b0 T
1%
#6400000
0%
b110 z
#6410000
b1101001 >
b1 T
b1101001 ;
b1101001 M
1%
#6420000
0%
#6430000
b10 T
b1101010 O
1%
#6440000
0%
#6450000
b0 T
1%
#6460000
0%
#6470000
b1101010 >
b1 T
b1101010 ;
b1101010 M
1%
#6480000
0%
#6490000
b10 T
b1101011 O
1%
#6500000
0%
1,
#6510000
b0 T
b1 g
1%
#6520000
0%
#6530000
1W
1[
b1101011 >
b11 g
b1 T
b1101011 ;
b1101011 M
1%
#6540000
0%
#6550000
0W
b10 T
b1101100 O
b100 b
b100011 k
1f
1%
#6560000
0%
#6570000
b0 T
1%
#6580000
0%
#6590000
b1101100 >
b1 T
b1101100 ;
b1101100 M
1%
#6600000
0%
#6610000
b10 T
b1101101 O
1%
#6620000
0%
#6630000
b0 T
1%
#6640000
0%
#6650000
b1101101 >
b1 T
b1101101 ;
b1101101 M
1%
#6660000
0%
#6670000
b10 T
b1101110 O
1%
#6680000
0%
#6690000
b0 T
1%
#6700000
0%
0,
#6710000
b1101110 >
b1 T
b1101110 ;
b1101110 M
b10 g
1%
#6720000
0%
#6730000
1V
0[
b0 g
b10 T
b1101111 O
1%
#6740000
0%
#6750000
0V
b0 T
0f
1%
#6760000
0%
#6770000
b1101111 >
b1 T
b1101111 ;
b1101111 M
1%
#6780000
0%
#6790000
b10 T
b1110000 O
1%
#6800000
0%
#6810000
b0 T
1%
#6820000
0%
#6830000
b1110000 >
b1 T
b1110000 ;
b1110000 M
1%
#6840000
0%
#6850000
b10 T
b1110001 O
1%
#6860000
0%
#6870000
b0 T
1%
#6880000
0%
#6890000
b1110001 >
b1 T
b1110001 ;
b1110001 M
1%
#6900000
0%
b101 z
#6910000
b10 T
b1110010 O
1%
#6920000
0%
#6930000
b0 T
1%
#6940000
0%
#6950000
b1110010 >
b1 T
b1110010 ;
b1110010 M
1%
#6960000
0%
#6970000
b10 T
b1110011 O
1%
#6980000
0%
#6990000
b0 T
1%
#7000000
0%
1,
#7010000
b1110011 >
b1 g
b1 T
b1110011 ;
b1110011 M
1%
#7020000
0%
#7030000
1W
1[
b10 T
b1110100 O
b11 g
1%
#7040000
0%
#7050000
0W
b11 b
b1000111 k
1f
b0 T
1%
#7060000
0%
#7070000
b1110100 >
b1 T
b1110100 ;
b1110100 M
1%
#7080000
0%
#7090000
b10 T
b1110101 O
1%
#7100000
0%
#7110000
b0 T
1%
#7120000
0%
#7130000
b1110101 >
b1 T
b1110101 ;
b1110101 M
1%
#7140000
0%
#7150000
b10 T
b1110110 O
1%
#7160000
0%
#7170000
b0 T
1%
#7180000
0%
#7190000
b1110110 >
b1 T
b1110110 ;
b1110110 M
1%
#7200000
0%
0,
#7210000
b10 g
b10 T
b1110111 O
1%
#7220000
0%
#7230000
1V
0[
b0 T
b0 g
1%
#7240000
0%
#7250000
0V
b1110111 >
0f
b1 T
b1110111 ;
b1110111 M
1%
#7260000
0%
#7270000
b10 T
b1111000 O
1%
#7280000
0%
#7290000
b0 T
1%
#7300000
0%
#7310000
b1111000 >
b1 T
b1111000 ;
b1111000 M
1%
#7320000
0%
#7330000
b10 T
b1111001 O
1%
#7340000
0%
#7350000
b0 T
1%
#7360000
0%
#7370000
b1111001 >
b1 T
b1111001 ;
b1111001 M
1%
#7380000
0%
#7390000
b10 T
b1111010 O
1%
#7400000
0%
b100 z
#7410000
b0 T
1%
#7420000
0%
#7430000
b1111010 >
b1 T
b1111010 ;
b1111010 M
1%
#7440000
0%
#7450000
b10 T
b1111011 O
1%
#7460000
0%
#7470000
b0 T
1%
#7480000
0%
#7490000
b1111011 >
b1 T
b1111011 ;
b1111011 M
1%
#7500000
0%
1,
#7510000
b10 T
b1111100 O
b1 g
1%
#7520000
0%
#7530000
1W
1[
b11 g
b0 T
1%
#7540000
0%
#7550000
0W
b1111100 >
b1 T
b1111100 ;
b1111100 M
b10 b
b10001111 k
1f
1%
#7560000
0%
#7570000
b10 T
b1111101 O
1%
#7580000
0%
#7590000
b0 T
1%
#7600000
0%
#7610000
b1111101 >
b1 T
b1111101 ;
b1111101 M
1%
#7620000
0%
#7630000
b10 T
b1111110 O
1%
#7640000
0%
#7650000
b0 T
1%
#7660000
0%
